<?xml version="1.0" encoding="utf-8"?>
<!-- Generator: Adobe Illustrator 21.0.2, SVG Export Plug-In . SVG Version: 6.00 Build 0)  -->
<svg version="1.1" id="Camada_1" xmlns="http://www.w3.org/2000/svg" xmlns:xlink="http://www.w3.org/1999/xlink" x="0px" y="0px"
	 viewBox="0 0 100 100" style="enable-background:new 0 0 100 100;" xml:space="preserve">
<style type="text/css">
	.st0{fill:none;stroke:#CCCCCC;stroke-width:3;stroke-miterlimit:10;}
	.st1{fill:#CCCCCC;}
</style>
<circle class="st0" cx="50" cy="50" r="44"/>
<path class="st1" d="M68.3,27.1H31.7c-2.5,0-4.6,2.1-4.6,4.6v36.7c0,2.5,2.1,4.6,4.6,4.6h36.7c2.5,0,4.6-2.1,4.6-4.6V31.7
	C72.9,29.1,70.9,27.1,68.3,27.1z M50,40.8c5,0,9.2,4.1,9.2,9.2c0,5-4.1,9.2-9.2,9.2c-5,0-9.2-4.1-9.2-9.2C40.8,44.9,45,40.8,50,40.8
	z M68.3,67.2c0,0.7-0.5,1.1-1.1,1.1H32.8c-0.7,0-1.1-0.5-1.1-1.1V47.7h4.8c-0.2,0.7-0.2,1.6-0.2,2.3c0,7.6,6.2,13.8,13.8,13.8
	c7.6,0,13.8-6.2,13.8-13.8c0-0.7,0-1.6-0.2-2.3h4.8V67.2z M68.3,37.4c0,0.7-0.5,1.1-1.1,1.1h-4.6c-0.7,0-1.1-0.5-1.1-1.1v-4.6
	c0-0.7,0.5-1.1,1.1-1.1h4.6c0.7,0,1.1,0.5,1.1,1.1V37.4z"/>
</svg>
