<?xml version="1.0" encoding="utf-8"?>
<!-- Generator: Adobe Illustrator 21.0.2, SVG Export Plug-In . SVG Version: 6.00 Build 0)  -->
<svg version="1.1" id="Camada_1" xmlns="http://www.w3.org/2000/svg" xmlns:xlink="http://www.w3.org/1999/xlink" x="0px" y="0px"
	 viewBox="0 0 100 100" style="enable-background:new 0 0 100 100;" xml:space="preserve">
<style type="text/css">
	.st0{fill:none;stroke:#EF173B;stroke-width:3;stroke-miterlimit:10;}
	.st1{fill:#EF173B;}
</style>
<circle class="st0" cx="50" cy="50" r="44"/>
<g>
	<rect x="26.3" y="41.9" class="st1" width="10.4" height="31.4"/>
	<path class="st1" d="M31.6,26.7c-3.6,0-5.9,2.3-5.9,5.4c0,3,2.3,5.4,5.8,5.4h0.1c3.6,0,5.9-2.4,5.9-5.4
		C37.3,29.1,35.1,26.7,31.6,26.7z"/>
	<path class="st1" d="M62.3,41.1c-5.5,0-8,3.1-9.4,5.2v0.1h-0.1c0,0,0-0.1,0.1-0.1v-4.4H42.5c0.1,2.9,0,31.4,0,31.4h10.4V55.7
		c0-0.9,0.1-1.9,0.3-2.5c0.8-1.9,2.5-3.8,5.4-3.8c3.8,0,5.3,2.9,5.3,7.1v16.8h10.4v-18C74.3,45.6,69.2,41.1,62.3,41.1z"/>
</g>
</svg>
