<?xml version="1.0" encoding="utf-8"?>
<!-- Generator: Adobe Illustrator 23.0.2, SVG Export Plug-In . SVG Version: 6.00 Build 0)  -->
<svg version="1.1" id="Camada_1" xmlns="http://www.w3.org/2000/svg" xmlns:xlink="http://www.w3.org/1999/xlink" x="0px" y="0px"
	 viewBox="0 0 100 100" style="enable-background:new 0 0 100 100;" xml:space="preserve">
<style type="text/css">
	.st0{fill:#CCCCCC;}
</style>
<g>
	<title>processo-research</title>
	<path class="st0" d="M2.4,97.6h55.1c0.1-1.8,0.5-19.2-16.8-26.8l-0.2-0.1l0.2-0.2c7.1-6,8-16.5,2.1-23.6c-6-7.1-16.5-8-23.6-2.1
		c-7.1,6-8,16.5-2.1,23.6c0.6,0.8,1.3,1.5,2.1,2.1l0.2,0.2l-0.2,0.1C8.4,75.4,2.1,85.4,2.4,97.6z M15.9,57.7c0-7.7,6.3-14,14-14
		s14,6.3,14,14s-6.3,14-14,14C22.2,71.7,15.9,65.4,15.9,57.7C15.9,57.7,15.9,57.7,15.9,57.7L15.9,57.7z M22.2,72.6L22.2,72.6h0.1
		c4.8,2.5,10.4,2.5,15.2,0h0.1h0.1c9.7,3.1,16.4,11.9,17,22v0.2H5.1v-0.2C5.7,84.5,12.5,75.7,22.2,72.6z"/>
	<path class="st0" d="M64.4,69.6L64.4,69.6L64.4,69.6c4.5,2.3,9.8,2.3,14.3,0l0,0h0.1c9,2.9,15.3,11,15.9,20.5v0.2H56V93h41.5
		c0.6-10.8-5.7-20.9-15.6-25.2l-0.2-0.1l0.2-0.2c6.7-5.7,7.5-15.6,1.8-22.3C78,38.6,68,37.8,61.4,43.4S53.9,59,59.6,65.7
		c0.6,0.7,1.2,1.3,1.8,1.8l0.3,0.2h-0.4c-4.6,0.7-9.1,6.3-11.8,9.6l2.2,1.7C54.3,75.9,59,70.2,64.4,69.6z M58.5,55.5
		c0-7.2,5.8-13.1,13.1-13.1c7.2,0,13.1,5.8,13.1,13.1c0,7.2-5.8,13.1-13.1,13.1c0,0,0,0,0,0C64.4,68.5,58.5,62.7,58.5,55.5z"/>
	<path class="st0" d="M65.2,22.3c0-8.1-6.3-14.7-14.3-15.2h-0.1V7c-1.2-2.8-3.9-4.6-6.9-4.6H16.1c-4.2,0-7.5,3.4-7.5,7.5v12.3
		c0,4.2,3.4,7.5,7.5,7.5h0.9l5.3,7.1l5.3-7.1h9.2v0.1c2.7,4.7,7.8,7.7,13.2,7.6c2.3,0,4.5-0.5,6.6-1.5l0,0l7.2,2v-9.5
		C64.7,26.5,65.2,24.4,65.2,22.3z M26.2,27.1l-3.9,5.2l-3.9-5.2h-2.2c-2.6,0-4.8-2.1-4.8-4.8V10c0-2.6,2.2-4.8,4.8-4.8h27.7
		c2.6,0,4.8,2.1,4.8,4.8v12.3c0,2.6-2.1,4.8-4.8,4.8L26.2,27.1z M61.1,27.9v6.5L56.3,33c-1.9,1.1-4.1,1.7-6.4,1.7
		c-3.8,0-7.3-1.7-9.7-4.7L40,29.8h3.7c4.2,0,7.5-3.4,7.5-7.5V9.9h0.2c6.2,0.8,10.9,6.1,10.9,12.4C62.4,24.2,61.9,26.1,61.1,27.9z"/>
	<rect x="16.2" y="10.1" class="st0" width="27.4" height="2.8"/>
	<rect x="28.6" y="19.4" class="st0" width="2.8" height="2.8"/>
	<rect x="34.7" y="19.4" class="st0" width="2.8" height="2.8"/>
	<rect x="22.4" y="19.4" class="st0" width="2.8" height="2.8"/>
</g>
</svg>
